<?xml version="1.0" encoding="utf-8"?>
<!-- Generator: Adobe Illustrator 21.0.2, SVG Export Plug-In . SVG Version: 6.00 Build 0)  -->
<svg version="1.1" id="Layer_1" xmlns="http://www.w3.org/2000/svg" xmlns:xlink="http://www.w3.org/1999/xlink" x="0px" y="0px"
	 viewBox="0 0 612 792" style="enable-background:new 0 0 612 792;" xml:space="preserve">
<style type="text/css">
	.st0{fill:#FFFFFF;}
</style>
<g>
	<path class="st0" d="M-2348,1892c0-996,0-1992,0-2988c1770.7,0,3541.3,0,5312,0c0,996,0,1992,0,2988
		C1193.3,1892-577.3,1892-2348,1892z M-109.3,471.9c1.6,1.9,3.2,3.8,4.6,5.6c6.9-3,13.4-5.8,20.7-8.9c0.3-2.1,0.7-4.9,1.1-7.7
		c4.4,0.3,8.4,1.6,11.9,0.7c6-1.7,10.3-5.9,11.3-12.7c0.7-4.7,4.5-6.8,8.1-9.4c1.7,2.8,3,5,4.4,7.4c6.7-0.5,13.3-0.3,14.3-7.8
		c5.7-0.4,10.8,0.3,15.3-1.2c7.8-2.6,15.5-6.1,22.7-10.1c10.2-5.7,21.3-7.4,32.5-9.4c3.9-0.7,8-1.6,11.8-1
		c11.1,1.9,21.6-1.8,32.3-2.6c12.2-0.9,24.4-2.1,36.4-4c11.5-1.9,23.9,0.6,34.3-6.7c1.2-0.8,3.2-0.7,4.8-0.6
		c9.9,0.7,20.1,0.2,29.6,2.7c15.7,4,32.7-0.6,47.7,7.7c1.1,0.6,2.6,0.3,4,0.3c9.2,0.3,17.2,4.1,25.4,8c12.5,5.9,21.2,18.6,36.4,19.4
		c0.8,0,1.7,1,2.5,1.6c5.1,4.7,10.4,9.3,15.2,14.3c14.6,15.5,24.8,33.7,32.8,53.2c3.1,7.7,7.9,13.7,15.6,17
		c10.7-5.7,12-8.6,9.1-19.6c-1-3.9-2.5-7.7-2.8-11.6c-0.6-9.4-3.4-19.3,4.9-27.2c0.9-0.8,1.7-2.3,1.6-3.5
		c-0.4-10.2-0.9-20.5-1.8-30.7c-0.4-4.6-1.7-9.2-2.4-13.8c-1.6-10.3,0.4-21.2-5.3-30.9c-0.9-1.5-0.6-3.9-0.6-5.9
		c0.4-11.5-4.3-22.6-2.5-34.2c-7.4-11.2-8.2-24.2-10.5-36.9c-0.7-4.2-2.3-8-1.2-12.5c0.5-2-0.6-6-2.1-6.7c-6.2-3-12.7-6.4-19.5-7.4
		c-9.6-1.5-19.6-1.9-29.3-1.2c-12.7,1-25.3,2.7-38.2,3.1c-13.8,0.3-27.6,3.9-41.4,5.9c-8.2,1.2-16.4,2.4-24.6,3
		c-6.9,0.5-13.8-0.1-20.4,3.4c-7.2,3.8-16.4,0.9-23.4,6.2c-0.4,0.3-1.3,0.2-1.9,0.1c-6-1.2-12.1-2-18-3.8c-4.5-1.3-7.7-0.7-9.6,2.7
		c-4.2-0.8-7.6-2.2-10.9-2.1c-9.2,0.4-18.3,1.6-27.4,2.2c-3,0.2-6-0.3-9-0.5c-1.7-0.1-4-1.1-4.8-0.3c-4.6,4-9.3,3.7-14.7,1.8
		c-3.3-1.2-6.8-1.8-10.3-2.1c-3.5-0.3-7.8-1-10.3,0.6c-4.1,2.7-8,4.2-12.9,4.2c-2.7,0-5.4,1.7-6.4,2c-5.1-1.6-8.9-3.8-12.7-3.7
		c-7.7,0.2-16.1-2.5-22.9,3.8c-0.4,0.3-1.4,0.3-1.9,0.1c-9-3.6-17.3,0.9-24.9,3.9c-10.4,4.1-20.5,5.9-31.5,5.8
		c-3.8,0-7.7,1.5-11.5,2.4c-1.9,0.5-3.7,1.4-5.7,1.7c-7.8,1.3-15.6,2.5-23.5,3.8c-2.3,0.4-4.8,1.5-6.8,0.9c-9.5-2.5-18.5,1-27.6,1.8
		c-5.3,0.5-10.6,0.7-15.9,1.5c-13.2,1.9-26.3,3.7-39.4,6c-6.2,1.1-10.9,4.8-13.7,10.6c-5.7,12.1-6.6,24.2,1.1,35.8
		c3.2,4.8,3.6,9.7,3.5,15.2c-0.2,7.6-0.4,15.4,0.6,22.9c2,15.5,5.2,30.8,7.1,46.4c2.7,21.8,6.5,43.4,5.1,65.6
		c-0.2,2.7,1.4,5.6,2.5,8.3c1.6,4.3,3.5,8.5,5.3,12.8c1.3,3,2,6.5,4.1,8.9c1.3,1.5,5.2,2.7,6.7,1.8c6.3-3.6,13.3-7.4,15.1-15
		c2.1-8.5,1.6-17.7,8-24.8c0.6-0.6,0.1-2.1,0.6-2.9c4.3-8.2,8.5-16.4,13.4-24.3c1.1-1.7,4.9-1.5,6.8-3c1.6-1.3,2.6-3.7,3.2-5.7
		c0.5-1.7-0.1-3.7-0.1-4.6C-126.4,482.5-118.3,477.5-109.3,471.9z M-392.5,309.9c2,11-2.5,24.9,9.8,34.3c0.4,0.3,0.3,1.4,0.8,1.8
		c2.6,2.9,5,6.2,8.1,8.4c4.7,3.2,12.6-0.1,12.9-5.9c0.4-9,5.9-10.7,13-12c14-2.6,28-5.2,42.2-7c20.3-2.6,40-9.8,60.9-7.3
		c1.3,0.2,2.6-0.3,4-0.4c9.5-1.2,19-2.9,28.6-3.6c14.9-1.1,29.8-1.6,44.7-2.2c30.5-1.3,60.7-6.7,91.2-6.8c2.9,0,5.9-1.1,8.8-1.6
		c5.8-1.1,11.9-3.7,17.5-3c8.8,1,17.2-0.4,25.8-1.1c7.2-0.6,14.6,0.5,21.8-0.3c11.2-1.2,22.4-3.1,33.5-5.3c4.1-0.8,7.8-3.4,11.8-5
		c2-0.8,4.2-1.5,6.3-1.7c5.5-0.6,11.1-0.7,16.6-1.3c8.2-1,16.2-2.6,24.4-3.5c8.7-0.9,17.5-1.1,26.3-1.9c6.3-0.6,12.5-1.9,18.7-2.4
		c19.2-1.3,38.4-1.8,57.5-3.8c9.7-1,20,3.3,29.2-2.8c0.4-0.3,1.5-0.1,1.9,0.2c6.4,4.9,12.7,1.6,19-0.1c10-2.7,20-4.4,30.5-4.5
		c8.8-0.1,17.6-2.9,27-4.6c1,0.5,3,1.5,5.2,2.5c1.9-2.6,3.4-4.7,5-7c1.1,0.4,1.9,0.7,2.9,1c7.8,1.8,16,4.8,23.3,1.1
		c5.1-2.6,9.5-3.9,15-3.5c3.2,0.3,6.5-1,9.8-1.4c4.2-0.5,8.4-0.8,12.6-1.2c6.6-0.6,13.4-0.4,19.7-2c3.4-0.9,6-5.1,10.1-1.1
		c0.6,0.6,2.5-0.1,3.9-0.3c17.2-2.9,34.3-6.5,51.9-2.9c1.3,0.3,2.7,0,4-0.3c6.1-1.2,12.2-2.7,18.4-3.5c4.2-0.6,8.6,0.1,12.9-0.4
		c6.5-0.8,13-2.2,19.5-3.3c3.6-0.6,7.3-0.8,10.8-1.9c5.3-1.7,11.4-5.2,10.8-10.4c-1-8.4,4.2-15.5,2.5-24.1
		c-1.7-8.9-4.2-14-13.2-15.8c-2.9-0.6-6-0.6-8.9-0.4c-17.6,1.2-35.1,2.9-52.4,6.5c-19.7,4.2-39.8,6.6-59.8,9.7
		c-4.2,0.7-8.4,1.1-12.7,1.5c-6.8,0.6-13.7,0.8-20.5,1.7c-21.3,2.8-42.6,5.9-63.9,8.7c-22.7,3-45.5,5.7-68.3,8.6
		c-18.4,2.4-36.9,4.9-55.3,7.2c-8.9,1.1-17.9,1.6-26.8,2.9c-5.2,0.7-10.2,3-15.5,3.6c-12.8,1.6-25.7,2.4-38.5,3.9
		c-11.2,1.3-22.3,3.6-33.6,4.6c-12.2,1.1-24.5,1.3-36.8,1.9c-1.3,0.1-2.6,0.6-3.9,0.8c-5.1,0.9-10.3,2.1-15.5,2.4
		c-6.9,0.4-13.9,0.1-20.8-0.1c-17.7-0.7-35.1,1.7-52.5,4.6c-11.5,1.9-23,3.7-34.5,5.2c-26,3.5-52,6.8-78,10.3
		c-10.5,1.4-21,3.4-31.5,4.5c-11.9,1.3-23.9,1.9-35.8,2.9c-25.8,2.1-51.7,5.2-77.5,6.1c-14,0.5-27.7,1.6-41.6,3.8
		C-371.4,294.8-384,296-392.5,309.9z M813.7,631.4c-2.1-10-3.6-21-6.9-31.4c-3.9-12.3-8.2-24.6-16.5-35c-4.5-5.7-8.7-12-11.4-18.7
		c-7.3-17.7-21.5-30.3-32.3-45.4c-7.3-10.2-15.4-19.8-23.5-29.4c-6.9-8.2-10-19.8-21.1-24.4c-0.7-0.3-1.1-1.6-1.6-2.4
		c-3.2-5-6.1-10.1-9.6-14.9c-13.2-18.2-28.9-33.7-48.7-45c-6.4-3.7-12-9.2-17-14.8c-10.5-11.8-16-27.7-29.5-37.2
		c-0.8-0.5-1.2-1.6-1.8-2.4c-6.7-8.9-13.5-17.8-20.1-26.7c-3.7-5.1-7.4-10.2-10.8-15.5c-6-9.3-13-17.6-22.6-23.5
		c-4.7-2.9-6.6-2.4-10.2,1.7c-3.6,4.1-4,8-0.8,12.6c2.6,3.8,5.4,7.7,6.9,12c3.1,9,7.8,16.9,14.1,23.9c2.2,2.5,4,5.3,5.8,8.1
		c12.6,19.2,24.6,38.8,37.7,57.6c10.3,14.7,23.2,27.3,36.7,39.4c17.4,15.5,33.6,32.2,50.4,48.4c2.9,2.8,5.7,5.7,8.7,8.3
		c6.7,5.9,14.3,10.9,20.1,17.5c9.9,11.2,18.9,23.3,27.7,35.4c5.5,7.5,9.9,15.7,14.7,23.6c6.5,10.5,13.1,20.8,19.4,31.4
		c10.3,17.3,17.7,35.6,19.1,56.1c0.6,8.8,1.2,17.9,6.1,26c2.8,4.6,7.1,5.2,11.2,4.4c1.9-0.4,3.5-4.2,4.3-6.8
		c1.4-5,3.2-10.1,0.1-15.4c-1.1-1.9-0.3-5.1-0.1-7.7C812.3,638.1,813,635.1,813.7,631.4z M794.9,807.9c7.3-8.9,11.8-18.1,12.8-29.2
		c0.7-7.5,3.2-14.9,4.2-22.5c0.9-7.8,1-15.7,1.3-23.6c0-1.2-0.8-2.5-1.5-3.6c-3.7-5.3-14-9.1-19.7-6.8c-6.1,2.4-7.2,8.2-7.9,13.9
		c-0.6,4.9-1.3,9.9-2,14.8c-0.8,5.9-1.6,11.7-2.4,17.5c-0.3,2.6-0.3,5.3-1,7.8C775.3,789.6,781.1,801.4,794.9,807.9z M827.5,708
		c-7-0.3-11,4.9-8.3,10.6c3.8,7.8,2.7,17.9,11.2,23.5c0.9,0.6,1.2,2.4,1.4,3.6c1.4,10.2,8.2,17.9,12.5,26.7c1.3,2.8,4.3,5.1,7,6.9
		c4.4,3,8.8,1.7,12.9-1.2c4-2.8,4.6-6.4,2.5-10.4c-2.2-4.3-4.8-8.5-7.1-12.7c-1.1-1.9-2.4-3.8-3.1-5.9c-2.7-7.4-4.9-15.1-7.9-22.4
		c-3.4-8.4-12-11.8-18.1-17.6C829.6,708.4,828.1,708.2,827.5,708z M857.7,696.8c1.3,2.9,3.8,5.8,3.6,8.5c-0.4,4.5,1,7.8,3.9,10.8
		c3.2,3.3,6.5,6.6,9.7,9.8c9.1,9,18.1,18.1,27.2,27.1c12.1-7.6,13.5-15.4,4.8-25.6c-5.4-6.3-11.3-12.3-15.5-19.3
		c-4.2-6.9-10.4-11.1-16.4-15.6C869.1,688,862.5,690.1,857.7,696.8z"/>
	<path d="M-109.3,471.9c-9,5.6-17.1,10.6-26,16.2c0,0.9,0.6,2.9,0.1,4.6c-0.6,2.1-1.6,4.5-3.2,5.7c-1.9,1.5-5.7,1.3-6.8,3
		c-4.8,7.9-9,16.1-13.4,24.3c-0.4,0.8,0,2.3-0.6,2.9c-6.5,7.1-6,16.3-8,24.8c-1.8,7.6-8.8,11.4-15.1,15c-1.5,0.9-5.4-0.3-6.7-1.8
		c-2-2.4-2.8-5.9-4.1-8.9c-1.8-4.2-3.6-8.5-5.3-12.8c-1-2.7-2.7-5.6-2.5-8.3c1.4-22.1-2.4-43.8-5.1-65.6
		c-1.9-15.5-5.1-30.9-7.1-46.4c-1-7.5-0.8-15.3-0.6-22.9c0.1-5.5-0.3-10.4-3.5-15.2c-7.7-11.6-6.8-23.7-1.1-35.8
		c2.8-5.8,7.6-9.5,13.7-10.6c13.1-2.3,26.3-4.2,39.4-6c5.3-0.7,10.6-1,15.9-1.5c9.2-0.9,18.2-4.3,27.6-1.8c2.1,0.5,4.6-0.6,6.8-0.9
		c7.8-1.2,15.7-2.4,23.5-3.8c1.9-0.3,3.8-1.2,5.7-1.7c3.8-0.9,7.7-2.4,11.5-2.4c10.9,0.1,21.1-1.8,31.5-5.8c7.6-3,15.9-7.5,24.9-3.9
		c0.6,0.2,1.5,0.3,1.9-0.1c6.8-6.3,15.2-3.7,22.9-3.8c3.8-0.1,7.6,2.1,12.7,3.7c1-0.3,3.7-2,6.4-2c4.9,0,8.7-1.5,12.9-4.2
		c2.5-1.6,6.8-0.9,10.3-0.6c3.5,0.3,7.1,0.9,10.3,2.1c5.3,2,10,2.2,14.7-1.8c0.9-0.8,3.2,0.2,4.8,0.3c3,0.2,6,0.7,9,0.5
		c9.1-0.6,18.3-1.8,27.4-2.2c3.4-0.2,6.8,1.2,10.9,2.1c1.9-3.4,5.1-4,9.6-2.7c5.9,1.7,12,2.6,18,3.8c0.6,0.1,1.5,0.2,1.9-0.1
		c7-5.3,16.2-2.5,23.4-6.2c6.6-3.4,13.4-2.9,20.4-3.4c8.2-0.5,16.4-1.8,24.6-3c13.8-2,27.5-5.6,41.4-5.9c12.9-0.3,25.4-2,38.2-3.1
		c9.7-0.8,19.7-0.3,29.3,1.2c6.7,1,13.2,4.4,19.5,7.4c1.5,0.7,2.6,4.7,2.1,6.7c-1.1,4.5,0.5,8.3,1.2,12.5
		c2.2,12.7,3.1,25.7,10.5,36.9c-1.9,11.6,2.8,22.7,2.5,34.2c-0.1,2-0.3,4.3,0.6,5.9c5.7,9.7,3.7,20.6,5.3,30.9
		c0.7,4.6,2,9.1,2.4,13.8c0.8,10.2,1.3,20.4,1.8,30.7c0,1.1-0.8,2.6-1.6,3.5c-8.3,7.9-5.5,17.8-4.9,27.2c0.3,3.9,1.8,7.8,2.8,11.6
		c2.9,11,1.6,13.9-9.1,19.6c-7.8-3.3-12.5-9.4-15.6-17c-8-19.6-18.2-37.8-32.8-53.2c-4.8-5-10.1-9.6-15.2-14.3
		c-0.7-0.7-1.6-1.6-2.5-1.6c-15.2-0.7-23.9-13.5-36.4-19.4c-8.2-3.9-16.2-7.7-25.4-8c-1.3,0-2.9,0.3-4-0.3
		c-14.9-8.3-31.9-3.7-47.7-7.7c-9.5-2.4-19.7-1.9-29.6-2.7c-1.6-0.1-3.6-0.3-4.8,0.6c-10.5,7.4-22.9,4.9-34.3,6.7
		c-12,2-24.2,3.1-36.4,4c-10.8,0.8-21.2,4.5-32.3,2.6c-3.8-0.6-7.9,0.3-11.8,1c-11.1,2-22.3,3.7-32.5,9.4c-7.2,4-14.9,7.5-22.7,10.1
		c-4.4,1.5-9.6,0.8-15.3,1.2c-0.9,7.5-7.5,7.4-14.3,7.8c-1.4-2.4-2.7-4.6-4.4-7.4c-3.7,2.6-7.4,4.6-8.1,9.4c-1,6.8-5.3,11-11.3,12.7
		c-3.4,1-7.5-0.3-11.9-0.7c-0.4,2.8-0.8,5.5-1.1,7.7c-7.2,3.1-13.7,5.9-20.7,8.9C-106.1,475.8-107.7,473.8-109.3,471.9z M-23,417.5
		c-1-0.9-1.7-1.8-2.4-1.9c-0.6,0-1.2,1-1.8,1.6c0.6,0.6,1.1,1.6,1.9,1.8C-24.8,419.2-24,418.2-23,417.5z M282.1,407.2
		c-1.3-1.1-2-2.1-3-2.6c-0.3-0.2-1.3,0.9-1.9,1.4c0.7,0.9,1.3,1.9,2.3,2.5C279.7,408.8,280.7,407.9,282.1,407.2z"/>
	<path d="M-392.5,309.9c8.5-13.9,21.1-15.1,33.7-17.1c13.8-2.2,27.5-3.3,41.6-3.8c25.9-0.9,51.7-4,77.5-6.1
		c11.9-1,23.9-1.6,35.8-2.9c10.6-1.2,21-3.1,31.5-4.5c26-3.5,52-6.8,78-10.3c11.5-1.6,23-3.3,34.5-5.2c17.4-2.9,34.8-5.2,52.5-4.6
		c6.9,0.3,13.9,0.5,20.8,0.1c5.2-0.3,10.3-1.6,15.5-2.4c1.3-0.2,2.6-0.8,3.9-0.8c12.3-0.6,24.6-0.8,36.8-1.9
		c11.2-1,22.3-3.3,33.6-4.6c12.8-1.5,25.7-2.4,38.5-3.9c5.2-0.6,10.2-2.9,15.5-3.6c8.9-1.3,17.9-1.8,26.8-2.9
		c18.5-2.3,36.9-4.8,55.3-7.2c22.8-2.9,45.5-5.6,68.3-8.6c21.3-2.8,42.6-5.9,63.9-8.7c6.8-0.9,13.7-1.1,20.5-1.7
		c4.2-0.4,8.5-0.8,12.7-1.5c19.9-3.1,40-5.6,59.8-9.7c17.4-3.7,34.8-5.3,52.4-6.5c3-0.2,6-0.2,8.9,0.4c9,1.8,11.4,6.9,13.2,15.8
		c1.7,8.6-3.5,15.6-2.5,24.1c0.6,5.1-5.5,8.7-10.8,10.4c-3.5,1.1-7.2,1.3-10.8,1.9c-6.5,1.1-13,2.5-19.5,3.3
		c-4.2,0.5-8.6-0.2-12.9,0.4c-6.2,0.8-12.3,2.4-18.4,3.5c-1.3,0.2-2.7,0.5-4,0.3c-17.6-3.6-34.7,0-51.9,2.9
		c-1.3,0.2-3.2,0.9-3.9,0.3c-4.1-4-6.7,0.3-10.1,1.1c-6.3,1.6-13.1,1.4-19.7,2c-4.2,0.4-8.4,0.7-12.6,1.2c-3.3,0.4-6.6,1.6-9.8,1.4
		c-5.5-0.4-10,0.9-15,3.5c-7.4,3.7-15.6,0.7-23.3-1.1c-0.9-0.2-1.8-0.6-2.9-1c-1.6,2.3-3.1,4.4-5,7c-2.2-1.1-4.1-2-5.2-2.5
		c-9.4,1.7-18.2,4.5-27,4.6c-10.5,0.1-20.5,1.8-30.5,4.5c-6.3,1.7-12.6,5-19,0.1c-0.4-0.3-1.5-0.5-1.9-0.2
		c-9.2,6.1-19.5,1.8-29.2,2.8c-19.1,2-38.4,2.5-57.5,3.8c-6.3,0.4-12.5,1.8-18.7,2.4c-8.7,0.8-17.6,1-26.3,1.9
		c-8.2,0.9-16.2,2.5-24.4,3.5c-5.5,0.7-11.1,0.8-16.6,1.3c-2.2,0.2-4.3,0.9-6.3,1.7c-4,1.6-7.7,4.2-11.8,5
		c-11.1,2.2-22.2,4.1-33.5,5.3c-7.2,0.8-14.6-0.3-21.8,0.3c-8.6,0.7-17,2.1-25.8,1.1c-5.6-0.6-11.7,1.9-17.5,3
		c-2.9,0.6-5.9,1.6-8.8,1.6c-30.6,0-60.8,5.5-91.2,6.8c-14.9,0.6-29.8,1.1-44.7,2.2c-9.6,0.7-19.1,2.4-28.6,3.6
		c-1.3,0.2-2.7,0.6-4,0.4c-20.9-2.5-40.6,4.8-60.9,7.3c-14.2,1.8-28.2,4.4-42.2,7c-7.1,1.3-12.6,3-13,12c-0.3,5.8-8.2,9.1-12.9,5.9
		c-3.1-2.2-5.5-5.5-8.1-8.4c-0.4-0.5-0.3-1.5-0.8-1.8C-395,334.8-390.5,320.9-392.5,309.9z"/>
	<path d="M813.7,631.4c-0.7,3.7-1.4,6.7-1.7,9.6c-0.3,2.6-1.1,5.8,0.1,7.7c3.1,5.4,1.4,10.4-0.1,15.4c-0.7,2.6-2.4,6.4-4.3,6.8
		c-4.1,0.9-8.4,0.2-11.2-4.4c-4.9-8.1-5.5-17.2-6.1-26c-1.4-20.5-8.8-38.8-19.1-56.1c-6.3-10.6-12.9-20.9-19.4-31.4
		c-4.9-7.9-9.3-16.2-14.7-23.6c-8.8-12.1-17.9-24.1-27.7-35.4c-5.8-6.6-13.4-11.7-20.1-17.5c-3-2.6-5.8-5.5-8.7-8.3
		c-16.7-16.2-33-32.9-50.4-48.4c-13.5-12.1-26.3-24.6-36.7-39.4c-13.1-18.8-25.2-38.4-37.7-57.6c-1.8-2.8-3.6-5.7-5.8-8.1
		c-6.3-7-11-14.9-14.1-23.9c-1.5-4.3-4.3-8.2-6.9-12c-3.2-4.6-2.8-8.5,0.8-12.6c3.6-4.1,5.6-4.6,10.2-1.7
		c9.6,5.9,16.5,14.2,22.6,23.5c3.4,5.3,7.1,10.4,10.8,15.5c6.6,9,13.4,17.8,20.1,26.7c0.6,0.8,1,1.8,1.8,2.4
		c13.5,9.5,19,25.4,29.5,37.2c5,5.6,10.6,11.2,17,14.8c19.8,11.3,35.4,26.8,48.7,45c3.5,4.8,6.4,9.9,9.6,14.9
		c0.5,0.8,0.9,2.1,1.6,2.4c11.1,4.6,14.2,16.2,21.1,24.4c8.1,9.6,16.2,19.2,23.5,29.4c10.8,15.1,25,27.7,32.3,45.4
		c2.8,6.7,6.9,13,11.4,18.7c8.3,10.4,12.6,22.7,16.5,35C810.1,610.4,811.5,621.4,813.7,631.4z"/>
	<path d="M794.9,807.9c-13.7-6.4-19.6-18.3-16.2-31.6c0.6-2.5,0.6-5.2,1-7.8c0.8-5.9,1.6-11.7,2.4-17.5c0.7-4.9,1.3-9.8,2-14.8
		c0.7-5.7,1.8-11.5,7.9-13.9c5.7-2.2,16,1.6,19.7,6.8c0.7,1,1.5,2.4,1.5,3.6c-0.3,7.9-0.3,15.8-1.3,23.6c-0.9,7.5-3.4,14.9-4.2,22.5
		C806.6,789.7,802.1,799,794.9,807.9z"/>
	<path d="M827.5,708c0.6,0.2,2.1,0.3,3,1.2c6.1,5.8,14.7,9.2,18.1,17.6c2.9,7.3,5.2,15,7.9,22.4c0.8,2.1,2.1,4,3.1,5.9
		c2.4,4.2,4.9,8.4,7.1,12.7c2,4,1.5,7.6-2.5,10.4c-4.1,2.9-8.5,4.2-12.9,1.2c-2.7-1.8-5.7-4.1-7-6.9c-4.2-8.9-11.1-16.5-12.5-26.7
		c-0.2-1.3-0.5-3-1.4-3.6c-8.4-5.6-7.4-15.7-11.2-23.5C816.5,712.9,820.5,707.8,827.5,708z"/>
	<path d="M857.7,696.8c4.8-6.7,11.3-8.7,17.1-4.4c6,4.5,12.2,8.7,16.4,15.6c4.3,7,10.2,13,15.5,19.3c8.7,10.2,7.3,18-4.8,25.6
		c-9.1-9-18.1-18-27.2-27.1c-3.3-3.2-6.5-6.5-9.7-9.8c-2.8-3-4.2-6.3-3.9-10.8C861.5,702.6,859.1,699.7,857.7,696.8z"/>
	<path class="st0" d="M-23,417.5c-1,0.7-1.8,1.7-2.3,1.5c-0.7-0.2-1.2-1.2-1.9-1.8c0.6-0.6,1.3-1.6,1.8-1.6
		C-24.7,415.7-24,416.7-23,417.5z"/>
	<path class="st0" d="M282.1,407.2c-1.3,0.7-2.4,1.6-2.7,1.4c-0.9-0.6-1.5-1.7-2.3-2.5c0.7-0.5,1.6-1.6,1.9-1.4
		C280,405.1,280.8,406.1,282.1,407.2z"/>
</g>
</svg>
